3 6 1
9 10 1
7 5 1
4 2 1
7 6 1
3 5 1
3 2 1
2 10 1
5 1 1
8 9 1
2 5 1
6 7 1
9 9 1
2 2 1
7 10 1
5 10 1
10 7 1
4 10 1
9 2 1
6 9 1
7 3 1
3 9 1
9 5 1
10 6 1
2 4 1
10 3 2
2 8 2
5 8 2
5 6 2
6 6 2
2 9 2
10 8 3
7 4 3
4 4 3
5 9 4
10 1 4
1 8 4
7 2 4
