8 10 1
4 5 1
3 10 1
7 6 1
1 9 1
7 4 1
10 2 1
3 9 1
7 2 1
4 2 1
2 3 1
4 3 1
8 6 1
2 7 1
6 8 1
6 9 1
5 10 1
5 5 1
5 3 1
6 5 1
3 3 1
2 1 1
8 1 1
9 3 1
2 2 1
9 7 2
9 10 2
10 8 2
8 8 2
6 2 2
9 9 2
2 5 3
10 10 3
4 7 3
8 3 4
4 8 4
