6 3 1
7 6 1
9 2 1
5 7 1
9 5 1
6 6 1
9 7 1
10 1 1
2 5 1
8 8 1
1 1 1
6 4 1
9 4 1
2 4 1
9 6 1
5 1 1
3 8 1
1 7 1
2 8 1
3 7 1
3 9 1
5 5 1
7 3 1
4 10 1
8 9 1
10 3 1
3 1 1
3 4 1
8 10 1
6 7 1
4 8 1
8 1 1
1 3 1
7 10 1
6 2 1
9 9 1
10 9 1
2 10 1
3 3 1
3 5 1
10 5 1
8 2 1
2 6 1
4 6 1
9 8 1
3 10 1
4 7 1
6 8 1
5 2 1
2 7 1
2 3 2
8 3 2
1 4 2
1 8 3
7 1 3
4 2 3
5 6 3
3 2 3
1 10 3
2 1 4
10 10 4
